DSAA
40 32
426000 428000
4520000 4521600
0 203.393936
100 109.006 120.479 122.652 120.087 121.654 127.566 133.984 140.402 146.82 153.237 160.451 168.541 166 172.609 188.544 203.394 203.333 173.714 150 131.261 119.778 110.777 104 103.113 100 97.2308 97.6667 97.7037 93.6203 90.72 85.5 84.7158 80.5 76.2679 72.265 71.3386 68 66.6295 0
100 109.006 120.479 122.652 120.087 121.654 127.566 133.984 140.402 146.82 153.237 160.451 168.541 166 172.609 188.544 203.394 203.333 173.714 150 131.261 119.778 110.777 104 103.113 100 97.2308 97.6667 97.7037 93.6203 90.72 85.5 84.7158 80.5 76.2679 72.265 71.3386 68 66.6295 0
100 109.006 120.479 122.652 120.087 121.654 127.566 133.984 140.402 146.82 153.237 160.451 168.541 166 172.609 188.544 203.394 203.333 173.714 150 131.261 119.778 110.777 104 103.113 100 97.2308 97.6667 97.7037 93.6203 90.72 85.5 84.7158 80.5 76.2679 72.265 71.3386 68 66.6295 0
102.6 108.5 124.706 126.141 121.653 120.385 121.804 123.869 129.432 135.849 144.07 150.182 154.595 156 172.571 184.308 196.8 200.881 183.13 160.5 138.222 113.6 109.507 105.944 97.7195 94.8086 90.9967 92.5345 89.6449 86.2941 83.0588 83.55 80.2405 73.5686 69.3355 67.5512 66.1588 64.9087 63.6951 0
101.785 105.379 113.342 124.451 119.636 110.893 117.06 121.594 124.48 136.364 145.63 152.229 162.386 168 173.079 180.87 192.978 200 185.143 160.4 137.5 123.733 109.048 104.311 100 91.0889 86.7012 87.6364 85.8492 82.7246 76.1263 76.5487 74.6667 73.5579 66.9474 64.3582 63.1166 61.8751 60.6335 59.3918
100.8 108 112 114.245 105 108 112.43 122.951 133.714 145.333 149.478 157.578 162.477 165.961 173.225 184 190.815 193.901 188.4 157.897 133.6 120.7 111.789 100.095 93.0846 87.3817 83.5558 79.6195 78.3965 79.0625 75.6999 72 65.5281 66.3477 63.8165 61.3245 60.083 58.8414 57.5998 56.7916
92.7018 100.533 106.966 100.848 97.7561 106 122 128.889 138.265 145.949 152.241 156 160.474 165.214 171.573 178.003 184.638 188.292 187.895 163.2 151.158 130.676 119.317 105.772 95.7241 85.618 81.1974 77.0295 74.2821 73.7669 71.9555 69.5294 65.0452 63.1978 61.5026 59.0488 57.0493 55.8077 54.5662 53.5667
87.6535 92 96 94.3448 120 120 123.284 134.48 140 146.973 152.164 150.468 156.257 163.103 168.525 173.213 176.678 180.606 183.993 184.471 168.923 149.905 124.615 106.667 90.9787 84 80.117 75.4595 71.7538 69.4346 64.7143 60 59.5462 60 59.3753 56.9215 54.4676 52.7741 51.5325 50.2919
85.205 85.641 86.5604 99.7744 112.218 118.212 126.4 132.706 138.233 146.416 149.329 141.316 150.4 156.457 164.095 166.532 168.661 171.438 183.804 191.968 176.25 134.56 115.95 104.483 94.6341 88.2327 82.4615 68.1538 68.6234 65.7696 61.1617 60 56.2291 54.0429 57.7126 54.7941 52.3403 49.8865 48.4989 47.2573
83.0979 84 85.0423 93.4506 101.141 109.033 120 120.174 135.486 142.798 142.14 133.185 140.281 147.608 154.388 161.48 166.271 170.029 190.344 196 188 154 119 96.875 90.1818 80.6667 72.885 78.9434 73.0432 65.6 60.6393 60 55.5387 53.2809 56.8058 53.4383 50.213 47.7592 45.4652 44.2236
81.7137 82.9044 84 89.5959 96.8818 103.95 109.195 108.03 117.857 120 126.222 129.471 134.855 143.369 146.222 150.599 155 167.692 177.333 190.328 176.138 146.286 109.176 104 100 88 77.3714 80 76.2 71.5789 60.0913 62.3063 57.9071 54.7843 55.899 52.5316 49.1641 45.7966 43.178 41.19
79.1311 80.7653 82.3996 85.5072 94.0565 102.401 110.746 119.706 130.663 137.128 130.787 132.487 135.58 138.709 140.902 129.043 119.102 124.87 131.077 150 176 163.692 140 135.429 109.647 90.5366 99.3333 82 68 63.0857 61.8795 65.8461 60.5714 56.3083 56.8316 53.4231 48.45 44.8898 41.5224 38.5969
76.7036 78.1827 79.817 81.5483 88.2965 97.4682 106.64 117.161 132.019 138.865 133.734 135.534 137.399 139.667 114 106.545 104.957 104.448 108.8 122 144.889 172.571 176.746 156 137.556 115.059 120.706 85.4545 84 81.0123 78.2405 71.0244 64.2618 59.2018 59.668 57.6106 52.3601 47.387 42.4139 37.4408
75.0703 75.6001 77.2343 78.9227 81.9142 91.0859 99.5059 108.438 117.1 133.6 136.681 138.223 139.621 115.5 103.269 102.308 102.497 102.601 103.487 104 115.478 140 176.857 171.368 159.048 160.154 134.667 104.5 124.4 91.4495 82.9079 76 68 63.7284 62.666 61.4183 56 50.4156 44.7173 39.019
73.437 73.93 74.6517 76.286 78.0016 84.7036 91.1068 100.828 108.884 116.217 132.8 138.054 140 105.333 100.52 100 100.467 100.847 101.7 102.641 102.896 121.053 158.667 180 178.791 167.186 145.6 133.176 150.5 105.091 100.333 72 72.1951 68 66.2927 63.1698 52.2 48.2967 43.7841 39.6442
71.8037 72.2967 72.7896 73.7033 75.39 78.25 83.1801 90.1127 97.0454 103.978 112.78 120 126.768 101.282 100 100 100 100 100 100 100 103.178 122 153.25 180 166.375 144.727 151.064 172 119.579 98 92.5 85.4545 77.75 69.057 58.9461 50.7683 46.0214 44.3278 40.188
70.1703 70.6633 71.1563 71.6493 73.7021 79.1579 80.8323 86.8449 92.4975 96.8654 103.918 111.145 106.681 100.486 100 100 100 100 100 100 100 101.876 104 132.364 173.27 164.667 163.158 169.867 154.667 142.286 133.333 121.2 97.4098 77.4054 76.6222 67.1111 53.125 43.7206 41.1046 40.7317
67.8415 69.03 69.523 70.0827 72.4595 76.7164 80 84.2286 88.3475 93.3945 98.1883 101.412 103.938 100 100 100 100 100 100 100 100 100 102.062 118.222 162.207 173.63 175.504 171.556 148.762 121.636 112.826 105.333 95.1219 87.2453 83.6364 73.0947 59.3333 44.3 37.2375 37.535
65.1499 67.3967 67.8897 68.8521 71.6667 75.0297 77.5162 79.9092 84.2202 89.2153 95.1501 101.487 108 100 100 100 100 100 100 100 100 100 103.286 119.455 156 173.972 176 161.467 130 117.122 92 108 90.8571 80 73.6126 66.1538 57.0435 44.5217 36 36
62.4583 65.7634 66.3332 67.2489 70.8966 73.0481 74.8923 77.5451 81.0342 87.0948 93.1554 99.2982 108.034 100.96 100 100 100 100 100 100 100 100 103.864 128.667 145.529 169.217 175.561 156.129 121.143 113.5 89.1695 84.47 75.3086 68 62.875 58.2941 51.5556 44.3902 36 42.7633
59.7667 63.6085 63.6718 63.7067 67.4764 71.37 72 76.2711 78.4719 82.1095 88.9278 95.5997 111.028 120 100 100 100 100 100 100 101.297 112.25 121.714 132 144 163.158 176 152.8 119.343 102.941 89.2703 85.6725 74.7744 69.7159 60.2085 55.5051 51.6063 45.4118 56 47.6423
57.0751 59.6881 60.5668 60.6142 61.0165 65.5181 69.7629 75.5901 79.4214 80.8803 86.9349 95.1489 100.192 115.719 120 108.727 100 100 100 102.508 118.182 144 149.694 145.091 153 160 162.462 149.837 119.781 112 90.884 85.7889 73.3628 66.9328 60.2977 58.0934 56.5742 56.7823 56 49.3447
54.3835 54.4673 54.8456 56.332 57.5724 59.6481 62.8225 69.7289 77.3338 82.9962 87.284 93.9636 102.076 112.422 120 123.607 118.667 113.6 111 121.333 136 188 185.538 172 166.393 148 147.492 140 120.75 117.27 93 84.9372 70.5797 62.9321 60.387 59.3693 58.919 58.2494 56.5009 53.12
50.0865 49.2465 49.1244 50.4843 51.534 52.7077 55.8037 62.7645 70.5263 78.2881 85.8427 94 103.495 114.098 118.649 129.324 147.03 134.667 142.333 158.833 184 186.941 188 192 178.048 142.667 132 125.725 118.9 116 90.2002 79.1496 69.6907 62.6805 62.1955 61.7451 61.2948 60.105 59.6371 57.1174
44.9155 44.0257 43.4033 44.6277 45.47 45.9623 48.7522 55.8001 63.5619 69.6559 83.7818 92.4091 104 116 127.86 136.691 158.857 174.286 176 179.29 180.093 179.547 190.143 196.078 178 145.714 127.692 117.25 113.423 102.704 84.2687 74.4175 64 64 64 64 63.6705 64 62.9827 61.3268
39.6947 38.8049 37.8482 38.5637 39.406 40.2073 41.7006 48.8357 52.4333 54.3333 72.0916 88.5217 100.324 116 127.572 142.23 153.967 161.778 164.205 172 167.182 171.5 180.897 180.571 169.333 136.4 116 107.063 105.924 91.2 75.9729 70.2102 64 64 64 64 64 68 67.3846 65.0604
34.4739 33.7747 35.6054 35.8824 36 36 30.8571 40.4277 47.2607 53.9638 63.2846 75.5368 85.6552 100.857 124.601 138.177 144.863 148.704 153.429 152 151.727 152 153.027 156.408 148.436 134.61 113.231 107.112 104.302 89.561 78 68.2303 64.2403 64 64 64 64 72 70.407 73.5556
30.3723 31.2405 32.5874 30.4454 32 32.3333 21.3333 42.8235 47.2406 51.821 55.7521 59.1043 76 92.8781 121.209 131.291 134.504 138.882 146.366 149.11 148.761 148.929 151.063 152.874 144.319 139.822 132.39 111.184 104 107.765 87.6098 72.0595 67.6842 67.3528 67.0215 64 75.0526 74.8708 73.7831 83.0909
23.666 25.8462 28.3404 25.0909 29.6134 25.4444 17.3333 38.4103 43.604 49.6751 56.414 67.4 79.5844 96.4651 110.909 121.8 124.056 128.147 140.221 146.098 145.824 145.662 147.489 149.655 142.272 138.676 137.44 125.724 120 113.831 98.6956 76 72 70.6107 69.8139 74.5 78.2232 77.4905 88.6154 107.733
25.8122 23.9722 22.1322 20.2922 20.6422 19.5891 17.016 21.3624 39.25 44 48.2645 67.3333 76.3478 85.4054 98.4 104 111.564 120.066 134.173 148 148 146.226 144.048 146.214 140.103 137.093 135.777 132.089 123.216 112.566 100.251 92 88.3333 76 73.8947 81.6 86.7429 91.7778 105.2 125.308
0 0 24.5342 22.6942 20.8542 21.7275 22.0121 18.2972 19.1367 20 22.7 26 61.0435 74.2459 83.8067 89.9487 95.2453 110.231 139.139 146.153 144.872 147.123 146.071 144 138.48 129.483 130.026 131.569 130.376 118.791 108.063 107.348 108.96 108 104.222 95.4783 112.649 113.091 121.4 132
0 0 0 25.0962 23.2562 21.4162 20.5713 23.528 19.7162 18.7992 20 20 37 60.7192 68.4863 74.0225 81.6 111.36 136.316 142.804 142.991 145.242 147.493 146 138.101 122.769 125.129 132.567 137.535 126.065 116.705 114.044 111.634 102.028 104.719 110.216 121.362 123.153 128.587 132
